<svg width="24" height="20" viewBox="0 0 24 20" fill="none" xmlns="http://www.w3.org/2000/svg">
<path fill-rule="evenodd" clip-rule="evenodd" d="M0.333008 10.5835L11.9997 0.0834961L23.6663 10.5835H20.1663V19.9168H13.1663V12.9168H10.833V19.9168H3.83301V10.5835H0.333008ZM17.8327 8.47168L11.9993 3.22168L6.16602 8.47168V17.5833H8.49935V10.5833H15.4993V17.5833H17.8327V8.47168Z" fill="#FF741F"/>
</svg>
