<svg width="24" height="22" viewBox="0 0 24 22" fill="none" xmlns="http://www.w3.org/2000/svg">
<path d="M23.5476 7.37167L22.3226 2.27333C22.0659 1.22333 21.1559 0.5 20.0942 0.5H3.88923C2.83923 0.5 1.91757 1.235 1.67257 2.27333L0.447566 7.37167C0.167566 8.56167 0.424233 9.775 1.1709 10.7317C1.26423 10.86 1.39257 10.9533 1.49757 11.07V19.1667C1.49757 20.45 2.54757 21.5 3.8309 21.5H20.1642C21.4476 21.5 22.4976 20.45 22.4976 19.1667V11.07C22.6026 10.965 22.7309 10.86 22.8242 10.7433C23.5709 9.78667 23.8392 8.56167 23.5476 7.37167ZM20.0592 2.82167L21.2842 7.92C21.4009 8.41 21.2959 8.9 20.9926 9.285C20.8292 9.495 20.4792 9.83333 19.8959 9.83333C19.1842 9.83333 18.5659 9.26167 18.4842 8.50333L17.8076 2.83333L20.0592 2.82167ZM13.1642 2.83333H15.4509L16.0809 8.10667C16.1392 8.56167 15.9992 9.01667 15.6959 9.355C15.4392 9.65833 15.0659 9.83333 14.5876 9.83333C13.8059 9.83333 13.1642 9.145 13.1642 8.305V2.83333ZM7.90257 8.10667L8.54423 2.83333H10.8309V8.305C10.8309 9.145 10.1892 9.83333 9.3259 9.83333C8.92923 9.83333 8.56757 9.65833 8.28757 9.355C7.9959 9.01667 7.8559 8.56167 7.90257 8.10667ZM2.7109 7.92L3.88923 2.83333H6.18757L5.5109 8.50333C5.41757 9.26167 4.8109 9.83333 4.09923 9.83333C3.52757 9.83333 3.1659 9.495 3.01423 9.285C2.69923 8.91167 2.59423 8.41 2.7109 7.92ZM3.8309 19.1667V12.1317C3.92423 12.1433 4.0059 12.1667 4.09923 12.1667C5.11423 12.1667 6.0359 11.7467 6.71257 11.0583C7.41257 11.7583 8.3459 12.1667 9.40757 12.1667C10.4226 12.1667 11.3326 11.7467 12.0092 11.0817C12.6976 11.7467 13.6309 12.1667 14.6809 12.1667C15.6609 12.1667 16.5942 11.7583 17.2942 11.0583C17.9709 11.7467 18.8926 12.1667 19.9076 12.1667C20.0009 12.1667 20.0826 12.1433 20.1759 12.1317V19.1667H3.8309Z" fill="#656D77"/>
</svg>
