<svg width="20" height="20" viewBox="0 0 20 20" fill="none" xmlns="http://www.w3.org/2000/svg">
<path d="M9.99996 2.88329C11.3533 2.88329 12.45 3.97996 12.45 5.33329C12.45 6.68663 11.3533 7.78329 9.99996 7.78329C8.64663 7.78329 7.54996 6.68663 7.54996 5.33329C7.54996 3.97996 8.64663 2.88329 9.99996 2.88329ZM9.99996 13.3833C13.465 13.3833 17.1166 15.0866 17.1166 15.8333V17.1166H2.88329V15.8333C2.88329 15.0866 6.53496 13.3833 9.99996 13.3833ZM9.99996 0.666626C7.42163 0.666626 5.33329 2.75496 5.33329 5.33329C5.33329 7.91162 7.42163 9.99996 9.99996 9.99996C12.5783 9.99996 14.6666 7.91162 14.6666 5.33329C14.6666 2.75496 12.5783 0.666626 9.99996 0.666626ZM9.99996 11.1666C6.88496 11.1666 0.666626 12.73 0.666626 15.8333V19.3333H19.3333V15.8333C19.3333 12.73 13.115 11.1666 9.99996 11.1666Z" fill="#656D77"/>
</svg>
