<svg width="21" height="21" viewBox="0 0 21 21" fill="none" xmlns="http://www.w3.org/2000/svg">
<path d="M2.16671 2.16659H18.8334V14.6666H3.38546L2.16671 15.8853V2.16659ZM2.16671 0.083252C1.02087 0.083252 0.0937907 1.02075 0.0937907 2.16659L0.083374 20.9166L4.25004 16.7499H18.8334C19.9792 16.7499 20.9167 15.8124 20.9167 14.6666V2.16659C20.9167 1.02075 19.9792 0.083252 18.8334 0.083252H2.16671ZM4.25004 10.4999H12.5834V12.5833H4.25004V10.4999ZM4.25004 7.37492H16.75V9.45825H4.25004V7.37492ZM4.25004 4.24992H16.75V6.33325H4.25004V4.24992Z" fill="#BCBFC1"/>
</svg>
