<svg width="50" height="50" viewBox="0 0 50 50" fill="none" xmlns="http://www.w3.org/2000/svg">
<rect width="50" height="50" fill="white"/>
<path d="M34 14.5H35.5V16C35.5 16.3979 35.658 16.7794 35.9393 17.0607C36.2206 17.342 36.6022 17.5 37 17.5C37.3978 17.5 37.7794 17.342 38.0607 17.0607C38.342 16.7794 38.5 16.3979 38.5 16V14.5H40C40.3978 14.5 40.7794 14.342 41.0607 14.0607C41.342 13.7794 41.5 13.3979 41.5 13C41.5 12.6022 41.342 12.2207 41.0607 11.9394C40.7794 11.6581 40.3978 11.5 40 11.5H38.5V10C38.5 9.60221 38.342 9.22068 38.0607 8.93937C37.7794 8.65807 37.3978 8.50003 37 8.50003C36.6022 8.50003 36.2206 8.65807 35.9393 8.93937C35.658 9.22068 35.5 9.60221 35.5 10V11.5H34C33.6022 11.5 33.2206 11.6581 32.9393 11.9394C32.658 12.2207 32.5 12.6022 32.5 13C32.5 13.3979 32.658 13.7794 32.9393 14.0607C33.2206 14.342 33.6022 14.5 34 14.5ZM17.5 17.5V32.5C17.5 32.8979 17.658 33.2794 17.9393 33.5607C18.2207 33.842 18.6022 34 19 34C19.3978 34 19.7794 33.842 20.0607 33.5607C20.342 33.2794 20.5 32.8979 20.5 32.5V17.5C20.5 17.1022 20.342 16.7207 20.0607 16.4394C19.7794 16.1581 19.3978 16 19 16C18.6022 16 18.2207 16.1581 17.9393 16.4394C17.658 16.7207 17.5 17.1022 17.5 17.5ZM39.4 20.5C39.2069 20.5394 39.0235 20.6164 38.8602 20.7267C38.6969 20.8369 38.557 20.9783 38.4483 21.1427C38.3397 21.307 38.2645 21.4912 38.227 21.6846C38.1896 21.8781 38.1906 22.077 38.23 22.27C38.8157 25.1143 38.4685 28.0717 37.2402 30.7031C36.0118 33.3345 33.9677 35.4996 31.4112 36.8771C28.8547 38.2547 25.9222 38.7711 23.049 38.3498C20.1757 37.9286 17.5149 36.592 15.4615 34.5386C13.408 32.4852 12.0715 29.8243 11.6502 26.9511C11.2289 24.0778 11.7454 21.1453 13.1229 18.5888C14.5004 16.0324 16.6656 13.9882 19.297 12.7599C21.9284 11.5315 24.8857 11.1844 27.73 11.77C28.1278 11.8496 28.541 11.7679 28.8785 11.5428C29.2161 11.3178 29.4504 10.9679 29.53 10.57C29.6096 10.1722 29.5278 9.75907 29.3028 9.42151C29.0778 9.08394 28.7278 8.8496 28.33 8.77003C27.2323 8.56551 26.1163 8.47503 25 8.50003C21.7366 8.50003 18.5465 9.46774 15.8331 11.2808C13.1197 13.0938 11.0048 15.6708 9.756 18.6858C8.50715 21.7007 8.18039 25.0183 8.81705 28.219C9.45371 31.4197 11.0252 34.3597 13.3327 36.6673C15.6403 38.9749 18.5803 40.5463 21.781 41.183C24.9817 41.8196 28.2993 41.4929 31.3143 40.244C34.3293 38.9952 36.9062 36.8804 38.7193 34.1669C40.5323 31.4535 41.5 28.2634 41.5 25C41.5032 23.8916 41.3926 22.7858 41.17 21.7C41.1341 21.5043 41.0596 21.3176 40.9508 21.151C40.842 20.9843 40.7011 20.8409 40.5364 20.7293C40.3716 20.6176 40.1863 20.5398 39.9912 20.5004C39.7961 20.4611 39.5952 20.4609 39.4 20.5ZM23.5 20.5V22C23.5066 23.1101 23.9233 24.1786 24.67 25C23.9233 25.8215 23.5066 26.89 23.5 28V29.5C23.5 30.6935 23.9741 31.8381 24.818 32.682C25.6619 33.5259 26.8065 34 28 34H29.5C30.6935 34 31.8381 33.5259 32.682 32.682C33.5259 31.8381 34 30.6935 34 29.5V28C33.9934 26.89 33.5767 25.8215 32.83 25C33.5767 24.1786 33.9934 23.1101 34 22V20.5C34 19.3066 33.5259 18.162 32.682 17.3181C31.8381 16.4741 30.6935 16 29.5 16H28C26.8065 16 25.6619 16.4741 24.818 17.3181C23.9741 18.162 23.5 19.3066 23.5 20.5ZM31 29.5C31 29.8979 30.842 30.2794 30.5607 30.5607C30.2794 30.842 29.8978 31 29.5 31H28C27.6022 31 27.2206 30.842 26.9393 30.5607C26.658 30.2794 26.5 29.8979 26.5 29.5V28C26.5 27.6022 26.658 27.2207 26.9393 26.9394C27.2206 26.6581 27.6022 26.5 28 26.5H29.5C29.8978 26.5 30.2794 26.6581 30.5607 26.9394C30.842 27.2207 31 27.6022 31 28V29.5ZM31 20.5V22C31 22.3979 30.842 22.7794 30.5607 23.0607C30.2794 23.342 29.8978 23.5 29.5 23.5H28C27.6022 23.5 27.2206 23.342 26.9393 23.0607C26.658 22.7794 26.5 22.3979 26.5 22V20.5C26.5 20.1022 26.658 19.7207 26.9393 19.4394C27.2206 19.1581 27.6022 19 28 19H29.5C29.8978 19 30.2794 19.1581 30.5607 19.4394C30.842 19.7207 31 20.1022 31 20.5Z" fill="#006CB3"/>
</svg>
